%YAML 1.1
%TAG !u! tag:unity3d.com,2011:
--- !u!74 &7400000
AnimationClip:
  m_ObjectHideFlags: 0
  m_CorrespondingSourceObject: {fileID: 0}
  m_PrefabInstance: {fileID: 0}
  m_PrefabAsset: {fileID: 0}
  m_Name: WalkLeft_1
  serializedVersion: 7
  m_Legacy: 0
  m_Compressed: 0
  m_UseHighQualityCurve: 1
  m_RotationCurves: []
  m_CompressedRotationCurves: []
  m_EulerCurves: []
  m_PositionCurves: []
  m_ScaleCurves: []
  m_FloatCurves: []
  m_PPtrCurves:
  - serializedVersion: 2
    curve:
    - time: 0
      value: {fileID: -684631108, guid: fd9cc2b7afe79df4d8377ad2251a0e40, type: 3}
    - time: 0.04761905
      value: {fileID: -606050849, guid: fd9cc2b7afe79df4d8377ad2251a0e40, type: 3}
    - time: 0.0952381
      value: {fileID: -1642523727, guid: fd9cc2b7afe79df4d8377ad2251a0e40, type: 3}
    - time: 0.14285715
      value: {fileID: -28048741, guid: fd9cc2b7afe79df4d8377ad2251a0e40, type: 3}
    - time: 0.1904762
      value: {fileID: -1788480412, guid: fd9cc2b7afe79df4d8377ad2251a0e40, type: 3}
    - time: 0.23809524
      value: {fileID: 1489958706, guid: fd9cc2b7afe79df4d8377ad2251a0e40, type: 3}
    - time: 0.2857143
      value: {fileID: -1049705693, guid: fd9cc2b7afe79df4d8377ad2251a0e40, type: 3}
    - time: 0.33333334
      value: {fileID: 1251014096, guid: fd9cc2b7afe79df4d8377ad2251a0e40, type: 3}
    - time: 0.3809524
      value: {fileID: -1562436866, guid: fd9cc2b7afe79df4d8377ad2251a0e40, type: 3}
    - time: 0.42857143
      value: {fileID: -1162817923, guid: fd9cc2b7afe79df4d8377ad2251a0e40, type: 3}
    - time: 0.47619048
      value: {fileID: -1620082448, guid: fd9cc2b7afe79df4d8377ad2251a0e40, type: 3}
    - time: 0.52380955
      value: {fileID: -1073761841, guid: fd9cc2b7afe79df4d8377ad2251a0e40, type: 3}
    - time: 0.5714286
      value: {fileID: 237646457, guid: fd9cc2b7afe79df4d8377ad2251a0e40, type: 3}
    - time: 0.61904764
      value: {fileID: -389862228, guid: fd9cc2b7afe79df4d8377ad2251a0e40, type: 3}
    attribute: m_Sprite
    path: 
    classID: 212
    script: {fileID: 0}
    flags: 2
  m_SampleRate: 21
  m_WrapMode: 0
  m_Bounds:
    m_Center: {x: 0, y: 0, z: 0}
    m_Extent: {x: 0, y: 0, z: 0}
  m_ClipBindingConstant:
    genericBindings:
    - serializedVersion: 2
      path: 0
      attribute: 0
      script: {fileID: 0}
      typeID: 212
      customType: 23
      isPPtrCurve: 1
      isIntCurve: 0
      isSerializeReferenceCurve: 0
    pptrCurveMapping:
    - {fileID: -684631108, guid: fd9cc2b7afe79df4d8377ad2251a0e40, type: 3}
    - {fileID: -606050849, guid: fd9cc2b7afe79df4d8377ad2251a0e40, type: 3}
    - {fileID: -1642523727, guid: fd9cc2b7afe79df4d8377ad2251a0e40, type: 3}
    - {fileID: -28048741, guid: fd9cc2b7afe79df4d8377ad2251a0e40, type: 3}
    - {fileID: -1788480412, guid: fd9cc2b7afe79df4d8377ad2251a0e40, type: 3}
    - {fileID: 1489958706, guid: fd9cc2b7afe79df4d8377ad2251a0e40, type: 3}
    - {fileID: -1049705693, guid: fd9cc2b7afe79df4d8377ad2251a0e40, type: 3}
    - {fileID: 1251014096, guid: fd9cc2b7afe79df4d8377ad2251a0e40, type: 3}
    - {fileID: -1562436866, guid: fd9cc2b7afe79df4d8377ad2251a0e40, type: 3}
    - {fileID: -1162817923, guid: fd9cc2b7afe79df4d8377ad2251a0e40, type: 3}
    - {fileID: -1620082448, guid: fd9cc2b7afe79df4d8377ad2251a0e40, type: 3}
    - {fileID: -1073761841, guid: fd9cc2b7afe79df4d8377ad2251a0e40, type: 3}
    - {fileID: 237646457, guid: fd9cc2b7afe79df4d8377ad2251a0e40, type: 3}
    - {fileID: -389862228, guid: fd9cc2b7afe79df4d8377ad2251a0e40, type: 3}
  m_AnimationClipSettings:
    serializedVersion: 2
    m_AdditiveReferencePoseClip: {fileID: 0}
    m_AdditiveReferencePoseTime: 0
    m_StartTime: 0
    m_StopTime: 0.6666667
    m_OrientationOffsetY: 0
    m_Level: 0
    m_CycleOffset: 0
    m_HasAdditiveReferencePose: 0
    m_LoopTime: 1
    m_LoopBlend: 0
    m_LoopBlendOrientation: 0
    m_LoopBlendPositionY: 0
    m_LoopBlendPositionXZ: 0
    m_KeepOriginalOrientation: 0
    m_KeepOriginalPositionY: 1
    m_KeepOriginalPositionXZ: 0
    m_HeightFromFeet: 0
    m_Mirror: 0
  m_EditorCurves: []
  m_EulerEditorCurves: []
  m_HasGenericRootTransform: 0
  m_HasMotionFloatCurves: 0
  m_Events: []
