Library\Bee\artifacts\mvdfrm\Unity.VisualScripting.Core.Editor.ref.dll_EDC8690F57C5BDFD.mvfrm
Library\Bee\artifacts\mvdfrm\Unity.VisualScripting.Core.ref.dll_D75DF4EA1AFE54F4.mvfrm
Library\Bee\artifacts\mvdfrm\Unity.VisualScripting.Flow.Editor.ref.dll_6AF951BE66A4493E.mvfrm
Library\Bee\artifacts\mvdfrm\Unity.VisualScripting.Flow.ref.dll_1E6ED5409D07C9A3.mvfrm
Library\Bee\artifacts\mvdfrm\Unity.VisualScripting.State.Editor.ref.dll_E03858E727F23F6F.mvfrm
Library\Bee\artifacts\mvdfrm\Unity.VisualScripting.State.ref.dll_D91762B7076BE462.mvfrm
Library\Bee\artifacts\mvdfrm\UnityEditor.TestRunner.ref.dll_193EC4CE382CBFB3.mvfrm
Library\Bee\artifacts\mvdfrm\UnityEditor.UI.ref.dll_4C98D3F7040CD4F5.mvfrm
Library\Bee\artifacts\mvdfrm\UnityEngine.TestRunner.ref.dll_E55D0F7C63F01D9E.mvfrm
Library\Bee\artifacts\mvdfrm\UnityEngine.UI.ref.dll_08FEAA520A2EFD60.mvfrm
Library\Bee\artifacts\mvdfrm\UnityEditor.Graphs.dll_DC0E3B4337F5763D.mvfrm
Library\Bee\artifacts\mvdfrm\UnityEditor.CoreModule.dll_7415906C3B83B70B.mvfrm
Library\Bee\artifacts\mvdfrm\UnityEditor.DeviceSimulatorModule.dll_95A7FAA993C171A6.mvfrm
Library\Bee\artifacts\mvdfrm\UnityEditor.DiagnosticsModule.dll_709857AF659BCA74.mvfrm
Library\Bee\artifacts\mvdfrm\UnityEditor.dll_CFD9D8EE3E04249A.mvfrm
Library\Bee\artifacts\mvdfrm\UnityEditor.EditorToolbarModule.dll_AB01E1B1F7B2E6B6.mvfrm
Library\Bee\artifacts\mvdfrm\UnityEditor.GraphViewModule.dll_262B5CF1365827CB.mvfrm
Library\Bee\artifacts\mvdfrm\UnityEditor.PresetsUIModule.dll_E19195D338B07FD0.mvfrm
Library\Bee\artifacts\mvdfrm\UnityEditor.QuickSearchModule.dll_FBA7D8BCBE72C6CD.mvfrm
Library\Bee\artifacts\mvdfrm\UnityEditor.SceneTemplateModule.dll_CEA1526FF69F90EE.mvfrm
Library\Bee\artifacts\mvdfrm\UnityEditor.SceneViewModule.dll_64DB3FF92B7AF4D9.mvfrm
Library\Bee\artifacts\mvdfrm\UnityEditor.TextCoreFontEngineModule.dll_90ECF8C9D7338029.mvfrm
Library\Bee\artifacts\mvdfrm\UnityEditor.TextCoreTextEngineModule.dll_D8D52F3B66B73947.mvfrm
Library\Bee\artifacts\mvdfrm\UnityEditor.UIBuilderModule.dll_7AB40A0DA910A0FF.mvfrm
Library\Bee\artifacts\mvdfrm\UnityEditor.UIElementsModule.dll_2558863B670BE867.mvfrm
Library\Bee\artifacts\mvdfrm\UnityEditor.UIElementsSamplesModule.dll_21CB5A4B8E3ADC76.mvfrm
Library\Bee\artifacts\mvdfrm\UnityEditor.UnityConnectModule.dll_4257F95EED90EB41.mvfrm
Library\Bee\artifacts\mvdfrm\UnityEngine.AccessibilityModule.dll_0146BE06F715B88B.mvfrm
Library\Bee\artifacts\mvdfrm\UnityEngine.AIModule.dll_666951B5ECEA91FF.mvfrm
Library\Bee\artifacts\mvdfrm\UnityEngine.AndroidJNIModule.dll_A3A16F0EB02B573D.mvfrm
Library\Bee\artifacts\mvdfrm\UnityEngine.AnimationModule.dll_F4B0D91A10B4FC71.mvfrm
Library\Bee\artifacts\mvdfrm\UnityEngine.ARModule.dll_1FDC16B94A07F0C8.mvfrm
Library\Bee\artifacts\mvdfrm\UnityEngine.AssetBundleModule.dll_3F910BAE20D97BBF.mvfrm
Library\Bee\artifacts\mvdfrm\UnityEngine.AudioModule.dll_9843F3EFE3345923.mvfrm
Library\Bee\artifacts\mvdfrm\UnityEngine.ClothModule.dll_FF2C50EABD513807.mvfrm
Library\Bee\artifacts\mvdfrm\UnityEngine.ClusterInputModule.dll_C1F46E749F18BE07.mvfrm
Library\Bee\artifacts\mvdfrm\UnityEngine.ClusterRendererModule.dll_9B54BD1B037C7F2A.mvfrm
Library\Bee\artifacts\mvdfrm\UnityEngine.ContentLoadModule.dll_D8A764EEEF5C23AC.mvfrm
Library\Bee\artifacts\mvdfrm\UnityEngine.CoreModule.dll_973663BEE3892236.mvfrm
Library\Bee\artifacts\mvdfrm\UnityEngine.CrashReportingModule.dll_AE61C6CC3188338E.mvfrm
Library\Bee\artifacts\mvdfrm\UnityEngine.DirectorModule.dll_56660653CCFB4DD3.mvfrm
Library\Bee\artifacts\mvdfrm\UnityEngine.dll_027E1FC69C77B17F.mvfrm
Library\Bee\artifacts\mvdfrm\UnityEngine.DSPGraphModule.dll_5BB767BD3F5C1EF4.mvfrm
Library\Bee\artifacts\mvdfrm\UnityEngine.GameCenterModule.dll_CDEEB929766C482E.mvfrm
Library\Bee\artifacts\mvdfrm\UnityEngine.GIModule.dll_FEA59AC388997A19.mvfrm
Library\Bee\artifacts\mvdfrm\UnityEngine.GridModule.dll_74A77FACFBDDB82D.mvfrm
Library\Bee\artifacts\mvdfrm\UnityEngine.HotReloadModule.dll_75F9971FEBE817F3.mvfrm
Library\Bee\artifacts\mvdfrm\UnityEngine.ImageConversionModule.dll_0746BACB85A1371E.mvfrm
Library\Bee\artifacts\mvdfrm\UnityEngine.IMGUIModule.dll_D0A39356A965ED04.mvfrm
Library\Bee\artifacts\mvdfrm\UnityEngine.InputLegacyModule.dll_D0D626CCB8CB31B0.mvfrm
Library\Bee\artifacts\mvdfrm\UnityEngine.InputModule.dll_FEB9BBA0596C7DC7.mvfrm
Library\Bee\artifacts\mvdfrm\UnityEngine.JSONSerializeModule.dll_615E4742F6511915.mvfrm
Library\Bee\artifacts\mvdfrm\UnityEngine.LocalizationModule.dll_004138C73694B100.mvfrm
Library\Bee\artifacts\mvdfrm\UnityEngine.NVIDIAModule.dll_191C943852105962.mvfrm
Library\Bee\artifacts\mvdfrm\UnityEngine.ParticleSystemModule.dll_017410189F99BF1C.mvfrm
Library\Bee\artifacts\mvdfrm\UnityEngine.PerformanceReportingModule.dll_BAC825C526846CF5.mvfrm
Library\Bee\artifacts\mvdfrm\UnityEngine.Physics2DModule.dll_4156C90AB1B1F406.mvfrm
Library\Bee\artifacts\mvdfrm\UnityEngine.PhysicsModule.dll_B7EE74EB4A8CD654.mvfrm
Library\Bee\artifacts\mvdfrm\UnityEngine.ProfilerModule.dll_88AC3F8A6654D4E0.mvfrm
Library\Bee\artifacts\mvdfrm\UnityEngine.PropertiesModule.dll_FB29F867E957AC6A.mvfrm
Library\Bee\artifacts\mvdfrm\UnityEngine.RuntimeInitializeOnLoadManagerInitializerModule.dll_5158ECCBDFA070CF.mvfrm
Library\Bee\artifacts\mvdfrm\UnityEngine.ScreenCaptureModule.dll_7B45F4C80ABD4577.mvfrm
Library\Bee\artifacts\mvdfrm\UnityEngine.SharedInternalsModule.dll_8B57F9A0FCCF326E.mvfrm
Library\Bee\artifacts\mvdfrm\UnityEngine.SpriteMaskModule.dll_B71B2BB997DBDDA8.mvfrm
Library\Bee\artifacts\mvdfrm\UnityEngine.SpriteShapeModule.dll_58F23908D67BB3C9.mvfrm
Library\Bee\artifacts\mvdfrm\UnityEngine.StreamingModule.dll_A945C66A603CB3AF.mvfrm
Library\Bee\artifacts\mvdfrm\UnityEngine.SubstanceModule.dll_85F0DAB3AB8FB1BD.mvfrm
Library\Bee\artifacts\mvdfrm\UnityEngine.SubsystemsModule.dll_21C8921B6623C5BB.mvfrm
Library\Bee\artifacts\mvdfrm\UnityEngine.TerrainModule.dll_D234F05A204B1F42.mvfrm
Library\Bee\artifacts\mvdfrm\UnityEngine.TerrainPhysicsModule.dll_01EEB8EBB8DCB9A9.mvfrm
Library\Bee\artifacts\mvdfrm\UnityEngine.TextCoreFontEngineModule.dll_0F4C741CEA313EF4.mvfrm
Library\Bee\artifacts\mvdfrm\UnityEngine.TextCoreTextEngineModule.dll_5734AA8E79B4F812.mvfrm
Library\Bee\artifacts\mvdfrm\UnityEngine.TextRenderingModule.dll_A48566D2C1F4C56C.mvfrm
Library\Bee\artifacts\mvdfrm\UnityEngine.TilemapModule.dll_713157DB3808004B.mvfrm
Library\Bee\artifacts\mvdfrm\UnityEngine.TLSModule.dll_172608847A3B7228.mvfrm
Library\Bee\artifacts\mvdfrm\UnityEngine.UIElementsModule.dll_2606F383695001B2.mvfrm
Library\Bee\artifacts\mvdfrm\UnityEngine.UIModule.dll_61DCEFE3493197AB.mvfrm
Library\Bee\artifacts\mvdfrm\UnityEngine.UmbraModule.dll_1318A008705B0496.mvfrm
Library\Bee\artifacts\mvdfrm\UnityEngine.UnityAnalyticsCommonModule.dll_5606E309406D0B53.mvfrm
Library\Bee\artifacts\mvdfrm\UnityEngine.UnityAnalyticsModule.dll_211380E24BC11118.mvfrm
Library\Bee\artifacts\mvdfrm\UnityEngine.UnityConnectModule.dll_2FB77D6DE818EBEC.mvfrm
Library\Bee\artifacts\mvdfrm\UnityEngine.UnityCurlModule.dll_27CD7A4B80C8EE5E.mvfrm
Library\Bee\artifacts\mvdfrm\UnityEngine.UnityTestProtocolModule.dll_DD8E103DE83631CC.mvfrm
Library\Bee\artifacts\mvdfrm\UnityEngine.UnityWebRequestAssetBundleModule.dll_54E576DA995E45E9.mvfrm
Library\Bee\artifacts\mvdfrm\UnityEngine.UnityWebRequestAudioModule.dll_32C479A3ACEF378D.mvfrm
Library\Bee\artifacts\mvdfrm\UnityEngine.UnityWebRequestModule.dll_18E5C2759095D19D.mvfrm
Library\Bee\artifacts\mvdfrm\UnityEngine.UnityWebRequestTextureModule.dll_163E5C443956F102.mvfrm
Library\Bee\artifacts\mvdfrm\UnityEngine.UnityWebRequestWWWModule.dll_21F6EFEA6974B47E.mvfrm
Library\Bee\artifacts\mvdfrm\UnityEngine.VehiclesModule.dll_CE28FFD347251D6E.mvfrm
Library\Bee\artifacts\mvdfrm\UnityEngine.VFXModule.dll_9804A0F350A8DB95.mvfrm
Library\Bee\artifacts\mvdfrm\UnityEngine.VideoModule.dll_BD4D785AA5C674C8.mvfrm
Library\Bee\artifacts\mvdfrm\UnityEngine.VirtualTexturingModule.dll_900209DCB54FA554.mvfrm
Library\Bee\artifacts\mvdfrm\UnityEngine.VRModule.dll_B4AF1668EAEC1D23.mvfrm
Library\Bee\artifacts\mvdfrm\UnityEngine.WindModule.dll_0D853EE774BFA09F.mvfrm
Library\Bee\artifacts\mvdfrm\UnityEngine.XRModule.dll_E76DD96D74266A81.mvfrm
Library\Bee\artifacts\mvdfrm\UnityEditor.WindowsStandalone.Extensions.dll_3D1D2EA26D8D5E45.mvfrm
Library\Bee\artifacts\mvdfrm\Unity.Plastic.Antlr3.Runtime.dll_DBC5D081C4D6AF26.mvfrm
Library\Bee\artifacts\mvdfrm\Unity.Plastic.Newtonsoft.Json.dll_B06B77423C8110AF.mvfrm
Library\Bee\artifacts\mvdfrm\Unity.Collections.LowLevel.ILSupport.dll_2E40CE80E145E521.mvfrm
Library\Bee\artifacts\mvdfrm\Unity.VisualScripting.IonicZip.dll_BE5647D59BA90757.mvfrm
Library\Bee\artifacts\mvdfrm\Unity.VisualScripting.YamlDotNet.dll_73B4528AAC4BDD55.mvfrm
Library\Bee\artifacts\mvdfrm\Unity.VisualScripting.TextureAssets.dll_0AD27BDE6D193B4D.mvfrm
Library\Bee\artifacts\mvdfrm\Unity.VisualScripting.Antlr3.Runtime.dll_2521796BDD14ED74.mvfrm